Project Checkpoint 1
…
country_counts <- plastics %>%
  group_by(country) %>%
  summarise(across(all_of(plastic_types), \(x) sum(x, na.rm = TRUE)), .groups = "drop")

results <- country_counts %>%
  mutate(diversity = map_dbl(1:n(), function(i) {
    counts <- as.numeric(country_counts[i, plastic_types])
    props <- counts / sum(counts)
    props <- props[props > 0]
    -sum(props * log(props))})) %>%
  select(country, diversity) %>%
  arrange(desc(diversity))
results

# A tibble: 69 × 2
   country                                            diversity
   <chr>                                                  <dbl>
 1 United Kingdom of Great Britain & Northern Ireland      1.74
 2 Sri Lanka                                               1.74
 3 Mexico                                                  1.71
 4 Indonesia                                               1.66
 5 Canada                                                  1.65
 6 Chile                                                   1.61
 7 Tunisia                                                 1.59
 8 Bulgaria                                                1.56
 9 Argentina                                               1.55
10 United States of America                                1.52
# ℹ 59 more rows
…
      total_plastic_per_year_country = sum(grand_total, na.rm = TRUE),
      type_count = sum(.data[[p]], na.rm = TRUE),
      .groups = "drop") %>%
    mutate(
      plastic_type = p, 
      proportion = type_count / total_plastic_per_year_country)})
results <- results %>% 
  select(country, year, total_plastic_per_year_country, plastic_type, proportion) %>%
  pivot_wider(
    names_from = plastic_type,
    values_from = proportion)
results %>%
  mutate(across(-c(country, year, total_plastic_per_year_country), ~ round(.x, 3)))

# A tibble: 107 × 10
   country     year total_plastic_per_year…¹  hdpe  ldpe     o   pet    pp    ps
   <chr>      <int>                    <int> <dbl> <dbl> <dbl> <dbl> <dbl> <dbl>
 1 Argentina   2019                     5336 0.081 0.021 0.228 0.516 0.105 0.043
 2 Argentina   2020                     1086 0.122 0.13  0.195 0.133 0.242 0.057
 3 Armenia     2020                        8 0     0     0     1     0     0    
 4 Australia   2019                        6 0     0     0     1     0     0    
 5 Australia   2020                     1668 0.02  0.133 0.538 0.085 0.216 0.002
 6 Bangladesh  2019                       32 0     0     1     0     0     0    
 7 Bangladesh  2020                     2383 0.158 0.001 0.654 0.125 0.037 0.024
 8 Benin       2019                     9976 0     0     0     1     0     0    
 9 Benin       2020                      342 0     0     0     1     0     0    
10 Bhutan      2019                     7000 0     0     0     1     0     0    
# ℹ 97 more rows
# ℹ abbreviated name: ¹​total_plastic_per_year_country
# ℹ 1 more variable: pvc <dbl>
…
